{
  "kind": "singleType",
  "collectionName": "drawers",
  "info": {
    "singularName": "drawer",
    "pluralName": "drawers",
    "displayName": "Drawer",
    "description": ""
  },
  "options": {
    "draftAndPublish": false
  },
  "pluginOptions": {},
  "attributes": {
    "pages": {
      "type": "relation",
      "relation": "oneToMany",
      "target": "api::single-page.single-page"
    }
  }
}
