{
  "kind": "collectionType",
  "collectionName": "single_pages",
  "info": {
    "singularName": "single-page",
    "pluralName": "single-pages",
    "displayName": "Single page",
    "description": ""
  },
  "options": {
    "draftAndPublish": false
  },
  "pluginOptions": {},
  "attributes": {
    "name": {
      "type": "string",
      "unique": true,
      "required": true
    },
    "title": {
      "type": "string"
    },
    "content": {
      "type": "richtext"
    }
  }
}
